model_basics
…
a0a1

sim1_dist <- function(a0, a1) {
  measure_distance(c(a0, a1), sim1)
}
models <- models %>% 
  mutate(dist = purrr::map2_dbl(a0, a1, sim1_dist))
models
#> # A tibble: 250 x 3
#>       a0     a1  dist
#>    <dbl>  <dbl> <dbl>
#> 1   7.43 -3.89   34.1
#> 2   7.42 -0.912  15.8
#> 3  39.7   1.93   34.8
#> 4 -17.5   4.36   11.4
#> # ... with 246 more rows
…
1.

One downside of the linear model is that it is sensitive to unusual values because the distance incorporates a squared term. Fit a linear model to the simulated data below, and visualise the results. Rerun a few times to generate different simulated datasets. What do you notice about the model?

sim1a <- tibble(
  x = rep(1:10, each = 3),
  y = x * 1.5 + 6 + rt(length(x), df = 2)
)

sim1a <- tibble(
  x = rep(1:10, each = 3),
  y = x * 1.5 + 6 + rt(length(x), df = 2)
)
sim1a
#> # A tibble: 30 x 2
#>       x     y
#>   <int> <dbl>
#> 1     1  7.88
#> 2     1  7.56
#> 3     1 11.1 
#> 4     2 10.4 
#> # ... with 26 more rows
…
